D:\Chennai DTCC\app2project2\src\test\java\com\bdd\StepDefs\OrderStepDef\Hooks.java
D:\Chennai DTCC\app2project2\src\test\java\com\bdd\StepDefs\OrderStepDef\ShoppingCartStepDef.java
D:\Chennai DTCC\app2project2\src\test\java\com\bdd\StepDefs\BaseStepDef.java
D:\Chennai DTCC\app2project2\src\test\java\com\bdd\Runner\TestRunner.java
